Methods Camp - 2 Tidy data analysis I
…
trump_scores <- read_csv("data/trump_scores_538.csv")

Rows: 122 Columns: 8
── Column specification ────────────────────────────────────────────────────────
Delimiter: ","
chr (4): bioguide, last_name, state, party
dbl (4): num_votes, agree, agree_pred, margin_trump

ℹ Use `spec()` to retrieve the full column specification for this data.
ℹ Specify the column types or set `show_col_types = FALSE` to quiet this message.

trump_scores

# A tibble: 122 × 8
   bioguide last_name  state party num_votes agree agree_pred margin_trump
   <chr>    <chr>      <chr> <chr>     <dbl> <dbl>      <dbl>        <dbl>
 1 A000360  Alexander  TN    R           118 0.890      0.856       26.0  
 2 B000575  Blunt      MO    R           128 0.906      0.787       18.6  
 3 B000944  Brown      OH    D           128 0.258      0.642        8.13 
 4 B001135  Burr       NC    R           121 0.893      0.560        3.66 
 5 B001230  Baldwin    WI    D           128 0.227      0.510        0.764
 6 B001236  Boozman    AR    R           129 0.915      0.851       26.9  
 7 B001243  Blackburn  TN    R           131 0.885      0.889       26.0  
 8 B001261  Barrasso   WY    R           129 0.891      0.895       46.3  
 9 B001267  Bennet     CO    D           121 0.273      0.417       -4.91 
10 B001277  Blumenthal CT    D           128 0.203      0.294      -13.6  
# ℹ 112 more rows
…
We can inspect our data by using the interface above. An alternative is to run the command View(trump_scores) or click on the object in RStudio’s environment panel (in the top-right section).

Do you have any questions about the data?

2.2 Wrangling data with dplyr

We often need to modify data to conduct our analyses, e.g., creating columns, filtering rows, etc. In the tidyverse, these operations are conducted with multiple verbs, which we will review now.

2.2.1 Selecting columns

We can select specific columns in our dataset with the select() function. All dplyr wrangling verbs take a data frame as their first argument—in this case, the columns we want to select are the other arguments.

select(trump_scores, last_name, party)

# A tibble: 122 × 2
   last_name  party
   <chr>      <chr>
 1 Alexander  R    
 2 Blunt      R    
 3 Brown      D    
 4 Burr       R    
 5 Baldwin    D    
 6 Boozman    R    
 7 Blackburn  R    
 8 Barrasso   R    
 9 Bennet     D    
10 Blumenthal D    
# ℹ 112 more rows

This is a good moment to talk about “pipes.” Notice how the code below produces the same output as the one above, but with a slightly different syntax. Pipes (|>) “kick” the object on the left of the pipe to the first argument of the function on the right. One can read pipes as “then,” so the code below can be read as “take trump_scores, then select the columns last_name and party.” Pipes are very useful to chain multiple operations, as we will see in a moment.

trump_scores |> 
  select(last_name, party)

# A tibble: 122 × 2
   last_name  party
   <chr>      <chr>
 1 Alexander  R    
 2 Blunt      R    
 3 Brown      D    
 4 Burr       R    
 5 Baldwin    D    
 6 Boozman    R    
 7 Blackburn  R    
 8 Barrasso   R    
 9 Bennet     D    
10 Blumenthal D    
# ℹ 112 more rows

Tip

You can insert a pipe with the Cmd/Ctrl + Shift + M shortcut. If you have not changed the default RStudio settings, an “old” pipe (%>%) might appear. While most of the functionality is the same, the |> “new” pipes are more readable. You can change this RStudio option in Tools > Global Options > Code > Use native pipe operator. Make sure to check the other suggested settings in our Setup module!

Going back to selecting columns, you can select ranges:

trump_scores |> 
  select(bioguide:party)

# A tibble: 122 × 4
   bioguide last_name  state party
   <chr>    <chr>      <chr> <chr>
 1 A000360  Alexander  TN    R    
 2 B000575  Blunt      MO    R    
 3 B000944  Brown      OH    D    
 4 B001135  Burr       NC    R    
 5 B001230  Baldwin    WI    D    
 6 B001236  Boozman    AR    R    
 7 B001243  Blackburn  TN    R    
 8 B001261  Barrasso   WY    R    
 9 B001267  Bennet     CO    D    
10 B001277  Blumenthal CT    D    
# ℹ 112 more rows

And use a few helper functions, like matches():

trump_scores |> 
  select(last_name, matches("agree"))

# A tibble: 122 × 3
   last_name  agree agree_pred
   <chr>      <dbl>      <dbl>
 1 Alexander  0.890      0.856
 2 Blunt      0.906      0.787
 3 Brown      0.258      0.642
 4 Burr       0.893      0.560
 5 Baldwin    0.227      0.510
 6 Boozman    0.915      0.851
 7 Blackburn  0.885      0.889
 8 Barrasso   0.891      0.895
 9 Bennet     0.273      0.417
10 Blumenthal 0.203      0.294
# ℹ 112 more rows

Or everything(), which we usually use to reorder columns:

trump_scores |> 
  select(last_name, everything())

# A tibble: 122 × 8
   last_name  bioguide state party num_votes agree agree_pred margin_trump
   <chr>      <chr>    <chr> <chr>     <dbl> <dbl>      <dbl>        <dbl>
 1 Alexander  A000360  TN    R           118 0.890      0.856       26.0  
 2 Blunt      B000575  MO    R           128 0.906      0.787       18.6  
 3 Brown      B000944  OH    D           128 0.258      0.642        8.13 
 4 Burr       B001135  NC    R           121 0.893      0.560        3.66 
 5 Baldwin    B001230  WI    D           128 0.227      0.510        0.764
 6 Boozman    B001236  AR    R           129 0.915      0.851       26.9  
 7 Blackburn  B001243  TN    R           131 0.885      0.889       26.0  
 8 Barrasso   B001261  WY    R           129 0.891      0.895       46.3  
 9 Bennet     B001267  CO    D           121 0.273      0.417       -4.91 
10 Blumenthal B001277  CT    D           128 0.203      0.294      -13.6  
# ℹ 112 more rows

Tip

Notice that all these commands have not edited our existent objects—they have just printed the requested outputs to the screen. In order to modify objects, you need to use the assignment operator (<-). For example:

trump_scores_reduced <- trump_scores |> 
  select(last_name, matches("agree"))

trump_scores_reduced

# A tibble: 122 × 3
   last_name  agree agree_pred
   <chr>      <dbl>      <dbl>
 1 Alexander  0.890      0.856
 2 Blunt      0.906      0.787
 3 Brown      0.258      0.642
 4 Burr       0.893      0.560
 5 Baldwin    0.227      0.510
 6 Boozman    0.915      0.851
 7 Blackburn  0.885      0.889
 8 Barrasso   0.891      0.895
 9 Bennet     0.273      0.417
10 Blumenthal 0.203      0.294
# ℹ 112 more rows

Exercise

Select the variables last_name, party, num_votes, and agree from the data frame. Your code:

2.2.2 Renaming columns

We can use the rename() function to rename columns, with the syntax new_name = old_name. For example:

trump_scores |> 
  rename(prop_agree = agree, prop_agree_pred = agree_pred)

# A tibble: 122 × 8
   bioguide last_name  state party num_votes prop_agree prop_agree_pred
   <chr>    <chr>      <chr> <chr>     <dbl>      <dbl>           <dbl>
 1 A000360  Alexander  TN    R           118      0.890           0.856
 2 B000575  Blunt      MO    R           128      0.906           0.787
 3 B000944  Brown      OH    D           128      0.258           0.642
 4 B001135  Burr       NC    R           121      0.893           0.560
 5 B001230  Baldwin    WI    D           128      0.227           0.510
 6 B001236  Boozman    AR    R           129      0.915           0.851
 7 B001243  Blackburn  TN    R           131      0.885           0.889
 8 B001261  Barrasso   WY    R           129      0.891           0.895
 9 B001267  Bennet     CO    D           121      0.273           0.417
10 B001277  Blumenthal CT    D           128      0.203           0.294
# ℹ 112 more rows
# ℹ 1 more variable: margin_trump <dbl>

This is a good occasion to show how pipes allow us to chain operations. How do we read the following code out loud? (Remember that pipes are read as “then”).

trump_scores |> 
  select(last_name, matches("agree")) |> 
  rename(prop_agree = agree, prop_agree_pred = agree_pred)

# A tibble: 122 × 3
   last_name  prop_agree prop_agree_pred
   <chr>           <dbl>           <dbl>
 1 Alexander       0.890           0.856
 2 Blunt           0.906           0.787
 3 Brown           0.258           0.642
 4 Burr            0.893           0.560
 5 Baldwin         0.227           0.510
 6 Boozman         0.915           0.851
 7 Blackburn       0.885           0.889
 8 Barrasso        0.891           0.895
 9 Bennet          0.273           0.417
10 Blumenthal      0.203           0.294
# ℹ 112 more rows

2.2.3 Creating columns

It is common to want to create columns, based on existing ones. We can use mutate() to do so. For example, we could want our main variables of interest in terms of percentages instead of proportions:

trump_scores |> 
  select(last_name, agree, agree_pred) |> # select just for clarity
  mutate(pct_agree = 100 * agree,
         pct_agree_pred = 100 * agree_pred)

# A tibble: 122 × 5
   last_name  agree agree_pred pct_agree pct_agree_pred
   <chr>      <dbl>      <dbl>     <dbl>          <dbl>
 1 Alexander  0.890      0.856      89.0           85.6
 2 Blunt      0.906      0.787      90.6           78.7
 3 Brown      0.258      0.642      25.8           64.2
 4 Burr       0.893      0.560      89.3           56.0
 5 Baldwin    0.227      0.510      22.7           51.0
 6 Boozman    0.915      0.851      91.5           85.1
 7 Blackburn  0.885      0.889      88.5           88.9
 8 Barrasso   0.891      0.895      89.1           89.5
 9 Bennet     0.273      0.417      27.3           41.7
10 Blumenthal 0.203      0.294      20.3           29.4
# ℹ 112 more rows

We can also use multiple columns for creating a new one. For example, let’s retrieve the total number of votes in which the senator agreed with Trump:

trump_scores |> 
  select(last_name, num_votes, agree) |> # select just for clarity
  mutate(num_votes_agree = num_votes * agree)

# A tibble: 122 × 4
   last_name  num_votes agree num_votes_agree
   <chr>          <dbl> <dbl>           <dbl>
 1 Alexander        118 0.890           105  
 2 Blunt            128 0.906           116  
 3 Brown            128 0.258            33  
 4 Burr             121 0.893           108  
 5 Baldwin          128 0.227            29  
 6 Boozman          129 0.915           118  
 7 Blackburn        131 0.885           116  
 8 Barrasso         129 0.891           115  
 9 Bennet           121 0.273            33.0
10 Blumenthal       128 0.203            26  
# ℹ 112 more rows

2.2.4 Filtering rows

Another common operation is to filter rows based on logical conditions. We can do so with the filter() function. For example, we can filter to only get Democrats:

trump_scores |> 
  filter(party == "D")

# A tibble: 55 × 8
   bioguide last_name  state party num_votes agree agree_pred margin_trump
   <chr>    <chr>      <chr> <chr>     <dbl> <dbl>      <dbl>        <dbl>
 1 B000944  Brown      OH    D           128 0.258      0.642        8.13 
 2 B001230  Baldwin    WI    D           128 0.227      0.510        0.764
 3 B001267  Bennet     CO    D           121 0.273      0.417       -4.91 
 4 B001277  Blumenthal CT    D           128 0.203      0.294      -13.6  
 5 B001288  Booker     NJ    D           119 0.160      0.290      -14.1  
 6 C000127  Cantwell   WA    D           128 0.242      0.276      -15.5  
 7 C000141  Cardin     MD    D           128 0.25       0.209      -26.4  
 8 C000174  Carper     DE    D           129 0.295      0.318      -11.4  
 9 C001070  Casey      PA    D           129 0.287      0.508        0.724
10 C001088  Coons      DE    D           128 0.289      0.319      -11.4  
# ℹ 45 more rows
…
%in%
“is contained in”

&
“and” (intersection)

|
“or” (union)

Let’s see a couple of other examples.

trump_scores |> 
  filter(agree > 0.5)

# A tibble: 69 × 8
   bioguide last_name state party num_votes agree agree_pred margin_trump
   <chr>    <chr>     <chr> <chr>     <dbl> <dbl>      <dbl>        <dbl>
 1 A000360  Alexander TN    R           118 0.890      0.856        26.0 
 2 B000575  Blunt     MO    R           128 0.906      0.787        18.6 
 3 B001135  Burr      NC    R           121 0.893      0.560         3.66
 4 B001236  Boozman   AR    R           129 0.915      0.851        26.9 
 5 B001243  Blackburn TN    R           131 0.885      0.889        26.0 
 6 B001261  Barrasso  WY    R           129 0.891      0.895        46.3 
 7 B001310  Braun     IN    R            44 0.909      0.713        19.2 
 8 C000567  Cochran   MS    R            68 0.971      0.830        17.8 
 9 C000880  Crapo     ID    R           125 0.904      0.870        31.8 
10 C001035  Collins   ME    R           129 0.651      0.441        -2.96
# ℹ 59 more rows
…
Add a new column to the data frame, called diff_agree, which subtracts agree and agree_pred. How would you create abs_diff_agree, defined as the absolute difference of diff_agree?

Filter the data frame to only get senators for which we have information on fewer than (or equal to) five votes. Your code:

Filter the data frame to only get Democrats who agreed with Trump in at least 30% of votes. Your code:

2.2.5 Ordering rows

The arrange() function allows us to order rows according to values. For example, let’s order based on the agree variable:

trump_scores |> 
  arrange(agree)

# A tibble: 122 × 8
   bioguide last_name    state party num_votes agree agree_pred margin_trump
   <chr>    <chr>        <chr> <chr>     <dbl> <dbl>      <dbl>        <dbl>
 1 H000273  Hickenlooper CO    D             2 0         0.0302        -4.91
 2 H000601  Hagerty      TN    R             2 0         0.115         26.0 
 3 L000570  Luján        NM    D           186 0.124     0.243         -8.21
 4 G000555  Gillibrand   NY    D           121 0.124     0.242        -22.5 
 5 M001176  Merkley      OR    D           129 0.155     0.323        -11.0 
 6 W000817  Warren       MA    D           116 0.155     0.216        -27.2 
 7 B001288  Booker       NJ    D           119 0.160     0.290        -14.1 
 8 S000033  Sanders      VT    D           112 0.161     0.221        -26.4 
 9 H001075  Harris       CA    D           116 0.164     0.209        -30.1 
10 M000133  Markey       MA    D           127 0.165     0.213        -27.2 
# ℹ 112 more rows

Maybe we only want senators with more than a few data points. Remember that we can chain operations:

trump_scores |> 
  filter(num_votes >= 10) |> 
  arrange(agree)

# A tibble: 115 × 8
   bioguide last_name  state party num_votes agree agree_pred margin_trump
   <chr>    <chr>      <chr> <chr>     <dbl> <dbl>      <dbl>        <dbl>
 1 L000570  Luján      NM    D           186 0.124      0.243        -8.21
 2 G000555  Gillibrand NY    D           121 0.124      0.242       -22.5 
 3 M001176  Merkley    OR    D           129 0.155      0.323       -11.0 
 4 W000817  Warren     MA    D           116 0.155      0.216       -27.2 
 5 B001288  Booker     NJ    D           119 0.160      0.290       -14.1 
 6 S000033  Sanders    VT    D           112 0.161      0.221       -26.4 
 7 H001075  Harris     CA    D           116 0.164      0.209       -30.1 
 8 M000133  Markey     MA    D           127 0.165      0.213       -27.2 
 9 W000779  Wyden      OR    D           129 0.186      0.323       -11.0 
10 B001277  Blumenthal CT    D           128 0.203      0.294       -13.6 
# ℹ 105 more rows

By default, arrange() uses increasing order (like sort()). To use decreasing order, add a minus sign:

trump_scores |> 
  filter(num_votes >= 10) |> 
  arrange(-agree)

# A tibble: 115 × 8
   bioguide last_name state party num_votes agree agree_pred margin_trump
   <chr>    <chr>     <chr> <chr>     <dbl> <dbl>      <dbl>        <dbl>
 1 M001198  Marshall  KS    R           183 0.973      0.933        20.6 
 2 C000567  Cochran   MS    R            68 0.971      0.830        17.8 
 3 H000338  Hatch     UT    R            84 0.964      0.825        18.1 
 4 M001197  McSally   AZ    R           136 0.949      0.562         3.55
 5 P000612  Perdue    GA    R           119 0.941      0.606         5.16
 6 C001096  Cramer    ND    R           135 0.941      0.908        35.7 
 7 R000307  Roberts   KS    R           127 0.937      0.818        20.6 
 8 C001056  Cornyn    TX    R           129 0.922      0.659         9.00
 9 H001061  Hoeven    ND    R           129 0.922      0.883        35.7 
10 C001047  Capito    WV    R           127 0.921      0.896        42.2 
# ℹ 105 more rows

You can also order rows by more than one variable. What this does is to order by the first variable, and resolve any ties by ordering by the second variable (and so forth if you have more than two ordering variables). For example, let’s first order our data frame by party, and then within party order by agreement with Trump:

trump_scores |> 
  filter(num_votes >= 10) |> 
  arrange(party, agree)

# A tibble: 115 × 8
   bioguide last_name  state party num_votes agree agree_pred margin_trump
   <chr>    <chr>      <chr> <chr>     <dbl> <dbl>      <dbl>        <dbl>
 1 L000570  Luján      NM    D           186 0.124      0.243        -8.21
 2 G000555  Gillibrand NY    D           121 0.124      0.242       -22.5 
 3 M001176  Merkley    OR    D           129 0.155      0.323       -11.0 
 4 W000817  Warren     MA    D           116 0.155      0.216       -27.2 
 5 B001288  Booker     NJ    D           119 0.160      0.290       -14.1 
 6 S000033  Sanders    VT    D           112 0.161      0.221       -26.4 
 7 H001075  Harris     CA    D           116 0.164      0.209       -30.1 
 8 M000133  Markey     MA    D           127 0.165      0.213       -27.2 
 9 W000779  Wyden      OR    D           129 0.186      0.323       -11.0 
10 B001277  Blumenthal CT    D           128 0.203      0.294       -13.6 
# ℹ 105 more rows
…
