5 Tidy data analysis II – Methods Camp
…
Tip

Datasets from Stata and SPSS can have additional properties, like variable labels and special types of missing values. To learn more about this, check out the “Labelled data” chapter from Danny Smith’s Survey Research Datasets and R (2020).

5.1.4 Our data for this session

We will rename one of our objects to qog:

qog <- qog_csv
qog

# A tibble: 1,085 × 8
   cname      ccodealp  year region wdi_pop vdem_polyarchy vdem_corr ht_colonial
   <chr>      <chr>    <dbl> <chr>    <dbl>          <dbl>     <dbl> <chr>      
 1 Antigua a… ATG       1990 Carib…   63328             NA        NA British    
 2 Antigua a… ATG       1991 Carib…   63634             NA        NA British    
 3 Antigua a… ATG       1992 Carib…   64659             NA        NA British    
 4 Antigua a… ATG       1993 Carib…   65834             NA        NA British    
 5 Antigua a… ATG       1994 Carib…   67072             NA        NA British    
 6 Antigua a… ATG       1995 Carib…   68398             NA        NA British    
 7 Antigua a… ATG       1996 Carib…   69798             NA        NA British    
 8 Antigua a… ATG       1997 Carib…   71218             NA        NA British    
 9 Antigua a… ATG       1998 Carib…   72572             NA        NA British    
10 Antigua a… ATG       1999 Carib…   73821             NA        NA British    
# ℹ 1,075 more rows
…
Notice that we have missingness in the vdem_polyarchy and vdem_corr variables. We might want to filter the dataset to see which observations are in this situation:

qog |> 
  filter(vdem_polyarchy == NA | vdem_corr == NA)

# A tibble: 0 × 8
# ℹ 8 variables: cname <chr>, ccodealp <chr>, year <dbl>, region <chr>,
#   wdi_pop <dbl>, vdem_polyarchy <dbl>, vdem_corr <dbl>, ht_colonial <chr>

But the code above doesn’t work! To refer to missing values in logical conditions, we cannot use == NA. Instead, we need to use the is.na() function:

qog |> 
  filter(is.na(vdem_polyarchy) | is.na(vdem_corr))

# A tibble: 248 × 8
   cname      ccodealp  year region wdi_pop vdem_polyarchy vdem_corr ht_colonial
   <chr>      <chr>    <dbl> <chr>    <dbl>          <dbl>     <dbl> <chr>      
 1 Antigua a… ATG       1990 Carib…   63328             NA        NA British    
 2 Antigua a… ATG       1991 Carib…   63634             NA        NA British    
 3 Antigua a… ATG       1992 Carib…   64659             NA        NA British    
 4 Antigua a… ATG       1993 Carib…   65834             NA        NA British    
 5 Antigua a… ATG       1994 Carib…   67072             NA        NA British    
 6 Antigua a… ATG       1995 Carib…   68398             NA        NA British    
 7 Antigua a… ATG       1996 Carib…   69798             NA        NA British    
 8 Antigua a… ATG       1997 Carib…   71218             NA        NA British    
 9 Antigua a… ATG       1998 Carib…   72572             NA        NA British    
10 Antigua a… ATG       1999 Carib…   73821             NA        NA British    
# ℹ 238 more rows
…
Exercise

Calculate the median value of the corruption variable for each region (i.e., perform a grouped summary). Your code:

5.4 Pivoting data

We will now load another time-series cross-sectional dataset, but in a slightly different format. It’s adapted from the World Bank’s World Development Indicators (WDI) (2023) and records gross domestic product at purchasing power parity (GDP PPP).

gdp <- read_excel("data/wdi_gdp_ppp.xlsx")

gdp

# A tibble: 266 × 35
   country_name        country_code   `1990`   `1991`   `1992`   `1993`   `1994`
   <chr>               <chr>           <dbl>    <dbl>    <dbl>    <dbl>    <dbl>
 1 Aruba               ABW           2.03e 9  2.19e 9  2.32e 9  2.48e 9  2.69e 9
 2 Africa Eastern and… AFE           9.41e11  9.42e11  9.23e11  9.19e11  9.35e11
 3 Afghanistan         AFG          NA       NA       NA       NA       NA      
 4 Africa Western and… AFW           5.76e11  5.84e11  5.98e11  5.92e11  5.91e11
 5 Angola              AGO           6.85e10  6.92e10  6.52e10  4.95e10  5.02e10
 6 Albania             ALB           1.59e10  1.14e10  1.06e10  1.16e10  1.26e10
 7 Andorra             AND          NA       NA       NA       NA       NA      
 8 Arab World          ARB           2.19e12  2.25e12  2.35e12  2.41e12  2.48e12
 9 United Arab Emirat… ARE           2.01e11  2.03e11  2.10e11  2.12e11  2.27e11
10 Argentina           ARG           4.61e11  5.04e11  5.43e11  5.88e11  6.22e11
# ℹ 256 more rows
# ℹ 28 more variables: `1995` <dbl>, `1996` <dbl>, `1997` <dbl>, `1998` <dbl>,
#   `1999` <dbl>, `2000` <dbl>, `2001` <dbl>, `2002` <dbl>, `2003` <dbl>,
#   `2004` <dbl>, `2005` <dbl>, `2006` <dbl>, `2007` <dbl>, `2008` <dbl>,
#   `2009` <dbl>, `2010` <dbl>, `2011` <dbl>, `2012` <dbl>, `2013` <dbl>,
#   `2014` <dbl>, `2015` <dbl>, `2016` <dbl>, `2017` <dbl>, `2018` <dbl>,
#   `2019` <dbl>, `2020` <dbl>, `2021` <dbl>, `2022` <dbl>
…
Source: Illustration by Allison Horst, adapted by Peter Higgins.

We will use the pivot_longer() function:

gdp_long <- gdp |> 
  pivot_longer(cols = -c(country_name, country_code), # cols to not pivot
               names_to = "year", # how to name the column with names
               values_to = "wdi_gdp_ppp",  # how to name the column with values
               names_transform = as.integer) # make sure that years are numeric
gdp_long

# A tibble: 8,778 × 4
   country_name country_code  year wdi_gdp_ppp
   <chr>        <chr>        <int>       <dbl>
 1 Aruba        ABW           1990 2025472682.
 2 Aruba        ABW           1991 2186758474.
 3 Aruba        ABW           1992 2315391348.
 4 Aruba        ABW           1993 2484593045.
 5 Aruba        ABW           1994 2688426606.
 6 Aruba        ABW           1995 2756904694.
 7 Aruba        ABW           1996 2789595753.
 8 Aruba        ABW           1997 2986175079.
 9 Aruba        ABW           1998 3045659222.
10 Aruba        ABW           1999 3083365758.
# ℹ 8,768 more rows

Done! This is a much friendlier format to work with. For example, we can now do summaries:

gdp_long |> 
  summarize(mean_gdp_ppp = mean(wdi_gdp_ppp, na.rm = T), .by = country_name)

# A tibble: 266 × 2
   country_name                mean_gdp_ppp
   <chr>                              <dbl>
 1 Aruba                            3.38e 9
 2 Africa Eastern and Southern      1.61e12
 3 Afghanistan                      5.56e10
 4 Africa Western and Central       1.15e12
 5 Angola                           1.38e11
 6 Albania                          2.56e10
 7 Andorra                        NaN      
 8 Arab World                       4.22e12
 9 United Arab Emirates             4.29e11
10 Argentina                        8.06e11
# ℹ 256 more rows
…
Standardized unit codes (like country codes) are extremely useful when merging data. It’s harder than expected for a computer to realize that “Bolivia (Plurinational State of)” and “Bolivia” refer to the same unit. By default, these units will not be matched.2

Okay, now to the merging. Imagine we want to add information about GDP to our QOG main dataset. To do so, we can use the left_join() function, from the tidyverse’s dplyr package:

qog_plus <- left_join(qog, # left data frame, which serves as a "base"
                      gdp_long, # right data frame, from which to draw new columns
                      by = c("ccodealp" = "country_code", # can define name equivalencies!
                             "year"))

qog_plus |> 
  # select variables for clarity
  select(cname, ccodealp, year, wdi_pop, wdi_gdp_ppp)

# A tibble: 1,085 × 5
   cname               ccodealp  year wdi_pop wdi_gdp_ppp
   <chr>               <chr>    <dbl>   <dbl>       <dbl>
 1 Antigua and Barbuda ATG       1990   63328  966660878.
 2 Antigua and Barbuda ATG       1991   63634  987701012.
 3 Antigua and Barbuda ATG       1992   64659  999143284.
 4 Antigua and Barbuda ATG       1993   65834 1051896837.
 5 Antigua and Barbuda ATG       1994   67072 1122128908.
 6 Antigua and Barbuda ATG       1995   68398 1073208718.
 7 Antigua and Barbuda ATG       1996   69798 1144088355.
 8 Antigua and Barbuda ATG       1997   71218 1206688391.
 9 Antigua and Barbuda ATG       1998   72572 1263778328.
10 Antigua and Barbuda ATG       1999   73821 1310634399.
# ℹ 1,075 more rows
…
Exercise

Draw a scatterplot with time in the x-axis and democracy scores in the y-axis. Your code:

How can we visualize trends effectively? One alternative is to use a trend graph. Let’s start by computing the yearly averages for democracy in the whole region:

dem_yearly <- qog |> 
  summarize(mean_dem = mean(vdem_polyarchy, na.rm = T), .by = year)

summarize: now 31 rows and 2 columns, ungrouped

dem_yearly

# A tibble: 31 × 2
    year mean_dem
   <dbl>    <dbl>
 1  1990    0.581
 2  1991    0.600
 3  1992    0.605
 4  1993    0.620
 5  1994    0.629
 6  1995    0.642
 7  1996    0.651
 8  1997    0.657
 9  1998    0.663
10  1999    0.661
# ℹ 21 more rows
…
