Methods Camp - 9 Text analysis
…
We then break the text into individual tokens (tokenization) using tidytext’s unnest_tokens() function.

The two basic arguments for the unnest_tokens() function are column names. We have the output column, word, created by unnesting the text, and we have the input column, text, where the text being unnested comes from.

install.packages("tidytext")

library(tidytext)

Barbie_df %>%
  unnest_tokens(word, text)

# A tibble: 26 × 2
    line word  
   <int> <chr> 
 1     1 i'm   
 2     1 a     
 3     1 barbie
 4     1 girl  
 5     1 in    
 6     1 the   
 7     1 barbie
 8     1 world 
 9     2 life  
10     2 in    
# ℹ 16 more rows
…
Opp_df <- tibble(line = 1:5, text = Oppenheimer)

Opp_tok <- unnest_tokens(Opp_df, word, text)

Opp_tok %>%
  count(word, sort = TRUE)

# A tibble: 59 × 2
   word       n
   <chr>  <int>
 1 the        7
 2 i          3
 3 people     3
 4 a          2
 5 and        2
 6 few        2
 7 his        2
 8 that       2
 9 to         2
10 we         2
# ℹ 49 more rows
…
library(janeaustenr)

book_words <- austen_books() %>%
  unnest_tokens(word, text) %>%
  count(book, word, sort = TRUE)

total_words <- book_words %>% 
  group_by(book) %>% 
  summarize(total = sum(n))

book_words <- left_join(book_words, total_words)

book_words

# A tibble: 40,379 × 4
   book              word      n  total
   <fct>             <chr> <int>  <int>
 1 Mansfield Park    the    6206 160460
 2 Mansfield Park    to     5475 160460
 3 Mansfield Park    and    5438 160460
 4 Emma              to     5239 160996
 5 Emma              the    5201 160996
 6 Emma              and    4896 160996
 7 Mansfield Park    of     4778 160460
 8 Pride & Prejudice the    4331 122204
 9 Emma              of     4291 160996
10 Pride & Prejudice to     4162 122204
# ℹ 40,369 more rows
…
The bind_tf_idf() function in the tidytext package then takes a dataset as input with one row per token (term) per document, calculating the tf-idf statistics. Let’s look at terms with high scores.

Below we see all proper nouns, mostly names of characters. None of them occur across all of Jane Austen’s novels, which is why they are important, defining terms for each of the texts.

book_tf_idf <- book_words %>%
  bind_tf_idf(word, book, n)

book_tf_idf %>%
  select(-total) %>%
  arrange(desc(tf_idf))

# A tibble: 40,379 × 6
   book                word          n      tf   idf  tf_idf
   <fct>               <chr>     <int>   <dbl> <dbl>   <dbl>
 1 Sense & Sensibility elinor      623 0.00519  1.79 0.00931
 2 Sense & Sensibility marianne    492 0.00410  1.79 0.00735
 3 Mansfield Park      crawford    493 0.00307  1.79 0.00551
 4 Pride & Prejudice   darcy       373 0.00305  1.79 0.00547
 5 Persuasion          elliot      254 0.00304  1.79 0.00544
 6 Emma                emma        786 0.00488  1.10 0.00536
 7 Northanger Abbey    tilney      196 0.00252  1.79 0.00452
 8 Emma                weston      389 0.00242  1.79 0.00433
 9 Pride & Prejudice   bennet      294 0.00241  1.79 0.00431
10 Persuasion          wentworth   191 0.00228  1.79 0.00409
# ℹ 40,369 more rows
…
