Methods Camp - Solutions to exercises
…
Code

# setup: these steps were executed before the exercises
library(tidyverse)
trump_scores <- read_csv("data/trump_scores_538.csv")

Exercise

Select the variables last_name, party, num_votes, and agree from the data frame. Your code:

trump_scores |> 
  select(last_name, party, num_votes, agree)

# A tibble: 122 × 4
   last_name  party num_votes agree
   <chr>      <chr>     <dbl> <dbl>
 1 Alexander  R           118 0.890
 2 Blunt      R           128 0.906
 3 Brown      D           128 0.258
 4 Burr       R           121 0.893
 5 Baldwin    D           128 0.227
 6 Boozman    R           129 0.915
 7 Blackburn  R           131 0.885
 8 Barrasso   R           129 0.891
 9 Bennet     D           121 0.273
10 Blumenthal D           128 0.203
# ℹ 112 more rows

# alternative
trump_scores |> 
  select(last_name, party:agree)

# A tibble: 122 × 4
   last_name  party num_votes agree
   <chr>      <chr>     <dbl> <dbl>
 1 Alexander  R           118 0.890
 2 Blunt      R           128 0.906
 3 Brown      D           128 0.258
 4 Burr       R           121 0.893
 5 Baldwin    D           128 0.227
 6 Boozman    R           129 0.915
 7 Blackburn  R           131 0.885
 8 Barrasso   R           129 0.891
 9 Bennet     D           121 0.273
10 Blumenthal D           128 0.203
# ℹ 112 more rows
Exercise

Add a new column to the data frame, called diff_agree, which subtracts agree and agree_pred. How would you create abs_diff_agree, defined as the absolute value of diff_agree? Your code:

Filter the data frame to only get senators for which we have information on fewer than (or equal to) five votes. Your code:

Filter the data frame to only get Democrats who agreed with Trump in at least 30% of votes. Your code:

Add a new column to the data frame, called diff_agree, which subtracts agree and agree_pred. How would you create abs_diff_agree, defined as the absolute value of diff_agree? Your code:

trump_scores |> 
  mutate(diff_agree = agree - agree_pred) |> 
  select(last_name, matches("agree")) # just for clarity

# A tibble: 122 × 4
   last_name  agree agree_pred diff_agree
   <chr>      <dbl>      <dbl>      <dbl>
 1 Alexander  0.890      0.856    0.0336 
 2 Blunt      0.906      0.787    0.120  
 3 Brown      0.258      0.642   -0.384  
 4 Burr       0.893      0.560    0.333  
 5 Baldwin    0.227      0.510   -0.283  
 6 Boozman    0.915      0.851    0.0634 
 7 Blackburn  0.885      0.889   -0.00308
 8 Barrasso   0.891      0.895   -0.00389
 9 Bennet     0.273      0.417   -0.144  
10 Blumenthal 0.203      0.294   -0.0910 
# ℹ 112 more rows

trump_scores |> 
  mutate(abs_diff_agree = abs(agree - agree_pred)) |> 
  select(last_name, matches("agree")) # just for clarity

# A tibble: 122 × 4
   last_name  agree agree_pred abs_diff_agree
   <chr>      <dbl>      <dbl>          <dbl>
 1 Alexander  0.890      0.856        0.0336 
 2 Blunt      0.906      0.787        0.120  
 3 Brown      0.258      0.642        0.384  
 4 Burr       0.893      0.560        0.333  
 5 Baldwin    0.227      0.510        0.283  
 6 Boozman    0.915      0.851        0.0634 
 7 Blackburn  0.885      0.889        0.00308
 8 Barrasso   0.891      0.895        0.00389
 9 Bennet     0.273      0.417        0.144  
10 Blumenthal 0.203      0.294        0.0910 
# ℹ 112 more rows
…
Exercise

Arrange the data by diff_pred, the difference between agreement and predicted agreement with Trump. (You should have code on how to create this variable from the last exercise). Your code:

trump_scores |> 
  mutate(diff_agree = agree - agree_pred)  |> 
  arrange(diff_agree)

# A tibble: 122 × 9
   bioguide last_name state party num_votes agree agree_pred margin_trump
   <chr>    <chr>     <chr> <chr>     <dbl> <dbl>      <dbl>        <dbl>
 1 T000464  Tester    MT    D           129 0.302      0.805       20.4  
 2 J000300  Jones     AL    D            68 0.353      0.845       27.7  
 3 M001183  Manchin   WV    D           129 0.504      0.893       42.2  
 4 B000944  Brown     OH    D           128 0.258      0.642        8.13 
 5 M001170  McCaskill MO    D            83 0.458      0.830       18.6  
 6 H001069  Heitkamp  ND    D            84 0.548      0.915       35.7  
 7 D000607  Donnelly  IN    D            83 0.542      0.833       19.2  
 8 B001230  Baldwin   WI    D           128 0.227      0.510        0.764
 9 F000457  Franken   MN    D            55 0.236      0.495       -1.52 
10 R000608  Rosen     NV    D           136 0.346      0.604       -2.42 
# ℹ 112 more rows
# ℹ 1 more variable: diff_agree <dbl>
…
# setup: these steps were executed before the exercise
library(readxl)
gdp <- read_excel("data/wdi_gdp_ppp.xlsx")
gdp_long <- gdp |> 
  pivot_longer(cols = -c(country_name, country_code), 
               names_to = "year", 
               values_to = "wdi_gdp_ppp", 
               names_transform = as.integer) 

gdp_long |> 
  pivot_wider(id_cols = c(country_name, country_code), # can omit in this case too
              values_from = wdi_gdp_ppp, 
              names_from = year) 

# A tibble: 266 × 35
   country_name        country_code   `1990`   `1991`   `1992`   `1993`   `1994`
   <chr>               <chr>           <dbl>    <dbl>    <dbl>    <dbl>    <dbl>
 1 Aruba               ABW           2.03e 9  2.19e 9  2.32e 9  2.48e 9  2.69e 9
 2 Africa Eastern and… AFE           9.41e11  9.42e11  9.23e11  9.19e11  9.35e11
 3 Afghanistan         AFG          NA       NA       NA       NA       NA      
 4 Africa Western and… AFW           5.76e11  5.84e11  5.98e11  5.92e11  5.91e11
 5 Angola              AGO           6.85e10  6.92e10  6.52e10  4.95e10  5.02e10
 6 Albania             ALB           1.59e10  1.14e10  1.06e10  1.16e10  1.26e10
 7 Andorra             AND          NA       NA       NA       NA       NA      
 8 Arab World          ARB           2.19e12  2.25e12  2.35e12  2.41e12  2.48e12
 9 United Arab Emirat… ARE           2.01e11  2.03e11  2.10e11  2.12e11  2.27e11
10 Argentina           ARG           4.61e11  5.04e11  5.43e11  5.88e11  6.22e11
# ℹ 256 more rows
# ℹ 28 more variables: `1995` <dbl>, `1996` <dbl>, `1997` <dbl>, `1998` <dbl>,
#   `1999` <dbl>, `2000` <dbl>, `2001` <dbl>, `2002` <dbl>, `2003` <dbl>,
#   `2004` <dbl>, `2005` <dbl>, `2006` <dbl>, `2007` <dbl>, `2008` <dbl>,
#   `2009` <dbl>, `2010` <dbl>, `2011` <dbl>, `2012` <dbl>, `2013` <dbl>,
#   `2014` <dbl>, `2015` <dbl>, `2016` <dbl>, `2017` <dbl>, `2018` <dbl>,
#   `2019` <dbl>, `2020` <dbl>, `2021` <dbl>, `2022` <dbl>
…
qog_plus2 <- left_join(qog_plus,
                       emissions_long,
                       by = c("ccodealp" = "country_code",
                              "year"))

Create column for emissions per capita (here we do per 1,000 people).

Summarize information to get mean values at the country level (remember that na.rm = T is always a conscious decision):

qog_plus2 |> 
  mutate(emissions_pc = 1000 * wdi_co2 / wdi_pop) |> 
  summarize(emissions_pc_country = mean(emissions_pc, na.rm = T),
            .by = cname)

# A tibble: 35 × 2
   cname               emissions_pc_country
   <chr>                              <dbl>
 1 Antigua and Barbuda                 4.60
 2 Argentina                           3.71
 3 Bahamas (the)                       6.17
 4 Barbados                            4.53
 5 Bolivia                             1.36
 6 Brazil                              1.84
 7 Belize                              1.74
 8 Canada                             15.8 
 9 Chile                               3.64
10 Colombia                            1.54
# ℹ 25 more rows
…
