9 Text analysis – Methods Camp (2024)
…
ℹ Use `spec()` to retrieve the full column specification for this data.
ℹ Specify the column types or set `show_col_types = FALSE` to quiet this message.

We can tokenize the text by words:

rights_of_women_words <- rights_of_women |> 
  unnest_tokens(output = "word", input = "text", # column names in output and input
                token = "words")

And count the number of words:

rights_of_women_words |> 
  count(word, sort = T)

# A tibble: 7,767 × 2
   word      n
   <chr> <int>
 1 the    5059
 2 of     3713
 3 to     3270
 4 and    2468
 5 a      1844
 6 that   1367
 7 in     1305
 8 is     1182
 9 be     1040
10 it      842
# ℹ 7,757 more rows

9.2.4 Preprocessing

Why might want to do a bit of preprocessing and remove these “stop words”. tidytext comes with a little dictionary of them:

stop_words_smart <- stop_words |> 
  filter(lexicon == "SMART")
stop_words_smart

# A tibble: 571 × 2
   word        lexicon
   <chr>       <chr>  
 1 a           SMART  
 2 a's         SMART  
 3 able        SMART  
 4 about       SMART  
 5 above       SMART  
 6 according   SMART  
 7 accordingly SMART  
 8 across      SMART  
 9 actually    SMART  
10 after       SMART  
# ℹ 561 more rows

So you can do something like:

rights_of_women_words_cl <- rights_of_women_words |> 
  filter(!word %in% stop_words_smart$word)

rights_of_women_words_cl |> 
  count(word, sort = T)

# A tibble: 7,386 × 2
   word       n
   <chr>  <int>
 1 women    445
 2 man      308
 3 men      299
 4 reason   264
 5 mind     232
 6 virtue   198
 7 woman    190
 8 love     173
 9 life     170
10 nature   147
# ℹ 7,376 more rows

9.2.5 Counts by document

We might want to get the most common words in each “document,” e.g., chapters in this book.

count_by_chapter <- rights_of_women_words_cl |> 
  # count words by chapter
  count(word, chapter) |> 
  # get the top 10 in each chapter
  slice_max(n = 10, order_by = n, by = chapter)
count_by_chapter

# A tibble: 152 × 3
   word      chapter     n
   <chr>       <dbl> <int>
 1 women           0    31
 2 woman           0    19
 3 men             0    16
 4 rights          0    14
 5 chapter         0    13
 6 sex             0    13
 7 character       0    12
 8 human           0    12
 9 reason          0    12
10 society         0    12
# ℹ 142 more rows
…
[1] 0.1791759

The bind_tf_idf() adds TF-IDFs to a grouped token count:

tfidf_by_chapter <- rights_of_women_words_cl |> 
  # count words by chapter
  count(word, chapter, sort = T) |> 
  # add TF-IDF
  bind_tf_idf(term = word, document = chapter, n = n) |> 
  # get the top 10 in each chapter
  slice_max(n = 10, order_by = tf_idf, by = chapter)
tfidf_by_chapter

# A tibble: 206 × 6
   word            chapter     n       tf   idf  tf_idf
   <chr>             <dbl> <int>    <dbl> <dbl>   <dbl>
 1 polygamy              4     4 0.000853 2.64  0.00225
 2 prince                4     4 0.000853 2.64  0.00225
 3 thirty                4     4 0.000853 2.64  0.00225
 4 middle                4     5 0.00107  1.95  0.00208
 5 condition             4     7 0.00149  1.25  0.00187
 6 created               4     9 0.00192  0.847 0.00163
 7 accomplishments       4     7 0.00149  1.03  0.00154
 8 clothes               4     4 0.000853 1.54  0.00131
 9 sensation             4     4 0.000853 1.54  0.00131
10 twenty                4     4 0.000853 1.54  0.00131
# ℹ 196 more rows
…
